<svg 
 xmlns="http://www.w3.org/2000/svg"
 xmlns:xlink="http://www.w3.org/1999/xlink"
 width="353px" height="352px">
<defs>
<filter filterUnits="userSpaceOnUse" id="Filter_0" x="0px" y="0px" width="353px" height="352px"  >
    <feOffset in="SourceAlpha" dx="0" dy="0" />
    <feGaussianBlur result="blurOut" stdDeviation="7" />
    <feFlood flood-color="rgb(38, 53, 92)" result="floodOut" />
    <feComposite operator="atop" in="floodOut" in2="blurOut" />
    <feComponentTransfer><feFuncA type="linear" slope="0.5"/></feComponentTransfer>
    <feMerge>
    <feMergeNode/>
    <feMergeNode in="SourceGraphic"/>
  </feMerge>
</filter>
<filter id="Filter_1">
    <feFlood flood-color="rgb(255, 255, 255)" flood-opacity="1" result="floodOut" />
    <feComposite operator="atop" in="floodOut" in2="SourceGraphic" result="compOut" />
    <feBlend mode="normal" in="compOut" in2="SourceGraphic" />
</filter>

</defs>
<g filter="url(#Filter_0)">
<g filter="url(#Filter_1)">
<path fill-rule="evenodd"  fill="rgb(0, 0, 0)"
 d="M103.467,273.077 L86.400,273.077 L86.400,264.527 L103.467,264.527 L103.467,273.077 ZM69.333,273.077 L69.333,264.527 L77.867,264.527 L77.867,273.077 L69.333,273.077 ZM304.000,303.000 L48.000,303.000 L48.000,294.450 L143.962,294.450 L94.417,247.427 L56.533,247.427 L56.533,238.877 L85.410,238.877 L70.665,224.882 C70.432,224.661 70.226,224.415 70.049,224.149 C68.742,222.185 69.272,219.531 71.232,218.221 L93.175,203.566 C88.921,196.188 90.168,186.862 96.213,180.867 L110.869,166.205 L120.917,143.095 C121.131,142.603 121.434,142.157 121.812,141.778 C123.478,140.108 126.180,140.108 127.846,141.778 L132.847,146.784 C133.538,147.480 134.195,148.212 134.818,148.960 L139.025,143.693 L138.880,143.548 L140.160,142.265 L172.241,102.081 L124.800,102.081 L124.800,93.532 L179.068,93.532 L215.334,48.111 L221.999,53.454 L150.400,143.073 L183.253,175.989 L292.220,48.000 L298.714,53.557 L176.879,196.688 L199.253,238.022 L232.870,248.094 C242.192,250.844 248.578,259.437 248.533,269.173 L248.533,277.351 C248.532,283.669 246.190,289.763 241.963,294.450 L304.000,294.450 L304.000,303.000 ZM80.427,222.359 L86.664,228.293 L91.917,223.030 L97.950,229.075 L92.864,234.175 L99.827,240.771 L104.734,235.855 L110.767,241.900 L106.027,246.649 L112.964,253.249 L117.525,248.679 L123.559,254.724 L119.164,259.127 L126.110,265.723 L130.325,261.504 L136.358,267.549 L132.309,271.606 L139.260,278.202 L143.125,274.329 L149.158,280.373 L145.455,284.084 L156.373,294.450 L222.933,294.450 C230.814,294.444 237.671,289.042 239.535,281.369 L167.236,277.346 C166.189,277.287 165.200,276.843 164.459,276.098 L98.667,210.180 L80.427,222.359 ZM177.707,182.509 L171.733,176.524 L166.217,182.051 L160.183,176.007 L165.700,170.479 L158.933,163.700 L153.417,169.227 L147.383,163.182 L152.900,157.655 L145.067,149.806 L139.499,156.778 C141.067,160.560 141.871,164.615 141.867,168.709 C141.914,179.843 150.074,189.271 161.067,190.896 L169.907,191.669 L177.707,182.509 ZM240.000,269.173 C239.967,263.235 236.076,258.011 230.404,256.289 L195.098,245.692 C194.448,245.472 193.863,245.098 193.391,244.602 L187.550,250.454 L181.517,244.409 L188.971,236.941 L184.209,228.151 L174.750,237.629 L168.717,231.584 L179.968,220.312 L175.211,211.518 L161.950,224.800 L155.917,218.755 L170.965,203.677 L169.075,200.185 L160.089,199.386 C144.810,197.227 133.421,184.169 133.333,168.709 C133.350,162.762 130.991,157.054 126.784,152.858 L126.212,152.290 L118.370,170.343 C118.158,170.834 117.854,171.281 117.474,171.659 L102.247,186.912 C98.188,190.985 98.188,197.582 102.247,201.656 L169.335,268.900 L212.403,271.297 L240.000,272.833 L240.000,269.173 ZM137.600,119.180 L94.933,119.180 L94.933,110.631 L137.600,110.631 L137.600,119.180 ZM107.733,93.532 L116.267,93.532 L116.267,102.081 L107.733,102.081 L107.733,93.532 ZM73.600,161.930 L90.667,161.930 L90.667,170.479 L73.600,170.479 L73.600,161.930 ZM77.867,110.631 L86.400,110.631 L86.400,119.180 L77.867,119.180 L77.867,110.631 ZM56.533,161.930 L65.067,161.930 L65.067,170.479 L56.533,170.479 L56.533,161.930 Z"/>
</g></g>
</svg>