<svg 
									 xmlns="http://www.w3.org/2000/svg"
									 xmlns:xlink="http://www.w3.org/1999/xlink"
									 width="338px" height="332px">
									<defs>
									<filter filterUnits="userSpaceOnUse" id="Filter_0" x="0px" y="0px" width="338px" height="332px"  >
									    <feOffset in="SourceAlpha" dx="0" dy="0" />
									    <feGaussianBlur result="blurOut" stdDeviation="7" />
									    <feFlood flood-color="rgb(38, 53, 92)" result="floodOut" />
									    <feComposite operator="atop" in="floodOut" in2="blurOut" />
									    <feComponentTransfer><feFuncA type="linear" slope="0.5"/></feComponentTransfer>
									    <feMerge>
									    <feMergeNode/>
									    <feMergeNode in="SourceGraphic"/>
									  </feMerge>
									</filter>
									<filter id="Filter_1">
									    <feFlood flood-color="rgb(255, 255, 255)" flood-opacity="1" result="floodOut" />
									    <feComposite operator="atop" in="floodOut" in2="SourceGraphic" result="compOut" />
									    <feBlend mode="normal" in="compOut" in2="SourceGraphic" />
									</filter>

									</defs>
									<g filter="url(#Filter_0)">
									<g filter="url(#Filter_1)">
									<path fill-rule="evenodd"  fill="rgb(255, 255, 255)"
									 d="M288.056,211.362 C278.433,232.429 263.092,250.291 243.695,263.018 C223.776,276.085 200.610,282.992 176.702,282.992 C109.216,282.992 54.310,228.017 54.310,160.445 C54.310,136.506 61.208,113.311 74.260,93.369 C86.970,73.946 104.810,58.587 125.850,48.952 C130.192,46.962 135.312,48.182 138.295,51.924 C141.276,55.663 141.333,60.931 138.432,64.733 C125.632,81.511 118.866,101.563 118.866,122.722 C118.866,164.056 145.223,200.556 184.453,213.549 C186.614,214.264 187.787,216.599 187.072,218.763 C186.357,220.926 184.027,222.100 181.864,221.386 C161.318,214.581 143.641,201.703 130.746,184.145 C117.581,166.221 110.622,144.982 110.622,122.722 C110.622,99.736 117.973,77.952 131.881,59.722 C132.481,58.936 132.468,57.847 131.852,57.073 C131.235,56.300 130.179,56.046 129.281,56.458 C109.653,65.445 93.013,79.773 81.155,97.893 C68.987,116.487 62.555,138.118 62.555,160.445 C62.555,223.466 113.761,274.738 176.702,274.738 C199.001,274.738 220.604,268.297 239.176,256.113 C257.272,244.241 271.582,227.579 280.558,207.928 C280.969,207.028 280.717,205.969 279.944,205.351 C279.171,204.734 278.083,204.722 277.297,205.323 C259.093,219.248 237.336,226.608 214.378,226.608 C208.135,226.608 201.874,226.045 195.771,224.935 C193.531,224.528 192.045,222.379 192.452,220.136 C192.859,217.893 195.003,216.404 197.244,216.814 C202.863,217.835 208.627,218.354 214.379,218.354 C235.512,218.354 255.539,211.580 272.294,198.763 C276.093,195.859 281.354,195.917 285.088,198.900 C288.823,201.887 290.043,207.011 288.056,211.362 ZM224.705,175.252 C217.635,175.252 211.883,169.493 211.882,162.413 C211.882,155.334 217.634,149.573 224.705,149.573 C231.776,149.573 237.529,155.334 237.529,162.413 C237.529,169.493 231.776,175.252 224.705,175.252 ZM224.705,157.829 C222.180,157.829 220.127,159.886 220.126,162.414 C220.126,164.942 222.180,166.998 224.705,166.998 C227.231,166.998 229.285,164.942 229.285,162.414 C229.285,159.886 227.230,157.829 224.705,157.829 ZM221.288,92.784 C218.434,92.784 216.120,90.467 216.120,87.610 C216.120,84.752 218.434,82.436 221.288,82.436 C224.142,82.436 226.456,84.752 226.456,87.610 C226.456,90.467 224.142,92.784 221.288,92.784 ZM188.147,162.417 C191.001,162.417 193.315,164.734 193.315,167.592 C193.315,170.449 191.001,172.766 188.147,172.766 C185.293,172.766 182.979,170.449 182.979,167.592 C182.979,164.734 185.293,162.417 188.147,162.417 ZM209.932,122.179 C200.193,122.179 192.269,130.113 192.269,139.865 C192.269,142.144 190.423,143.992 188.147,143.992 C185.871,143.992 184.025,142.144 184.025,139.865 C184.025,130.113 176.101,122.179 166.362,122.179 C164.085,122.179 162.240,120.331 162.240,118.052 C162.240,115.773 164.085,113.925 166.362,113.925 C176.101,113.925 184.025,105.991 184.025,96.240 C184.025,93.960 185.871,92.112 188.147,92.112 C190.423,92.112 192.269,93.960 192.269,96.240 C192.269,105.991 200.193,113.925 209.932,113.925 C212.208,113.925 214.054,115.773 214.054,118.052 C214.054,120.331 212.208,122.179 209.932,122.179 ZM188.147,110.264 C186.139,113.381 183.483,116.041 180.369,118.052 C183.483,120.064 186.139,122.722 188.147,125.840 C190.156,122.722 192.811,120.063 195.925,118.052 C192.811,116.041 190.156,113.381 188.147,110.264 ZM58.338,229.722 C58.338,232.581 56.024,234.897 53.170,234.897 C50.316,234.897 48.002,232.581 48.002,229.722 C48.002,226.864 50.316,224.548 53.170,224.548 C56.024,224.548 58.338,226.864 58.338,229.722 ZM67.042,250.695 C74.113,250.695 79.866,256.454 79.866,263.534 C79.866,270.614 74.113,276.374 67.042,276.374 C59.971,276.374 54.219,270.614 54.219,263.534 C54.219,256.454 59.971,250.695 67.042,250.695 ZM67.042,268.119 C69.568,268.119 71.621,266.062 71.621,263.534 C71.621,261.005 69.567,258.949 67.042,258.949 C64.517,258.949 62.463,261.005 62.463,263.534 C62.463,266.062 64.517,268.119 67.042,268.119 Z"/>
									</g></g>
									</svg>