********************************************************************************
DUPLICATOR-LITE PACKAGE-LOG: 02.04.2019 11:36
NOTICE: Do NOT post to public sites or forums 
********************************************************************************
VERSION:	1.3.8
WORDPRESS:	5.0.4
PHP INFO:	7.3.1 | SAPI: apache2handler
SERVER:		Apache/2.4.37 (Win32) OpenSSL/1.1.1a PHP/7.3.1 
PHP TIME LIMIT: (0) no time limit imposed 
PHP MAX MEMORY: 4294967296 (128M default) 
MEMORY STACK: 4MB 

********************************************************************************
DATABASE:
********************************************************************************
BUILD MODE:   MYSQLDUMP
MYSQLTIMEOUT: 5000
MYSQLDUMP:    Is Supported 
SQL CREATED: 20190402_breathtaking_85b3f91c781551846220_20190402113536_database.sql 
SQL FILE SIZE: 539.17KB (552107) 
SQL FILE TIME: 2019-04-02 11:36:09 
SQL RUNTIME: 0.88 sec. 

******************************************************************************** 
ARCHIVE (ZIP): 
******************************************************************************** 
ARCHIVE DIR:  C:/xampp/htdocs/tr 
ARCHIVE FILE: 20190402_breathtaking_85b3f91c781551846220_20190402113536_archive.zip 
FILTERS: *OFF* 
DIRS:
	not set 
FILES:
	not set 
EXTS:  not set 
---------------------------------------- 
COMPRESSING 
SIZE:	173.84MB 
STATS:	Dirs 591 | Files 4,382 
SQL ADDED: 20190402_breathtaking_85b3f91c781551846220_20190402113536_database.sql 
ZipArchive Object
(
    [status] => 0
    [statusSys] => 0
    [numFiles] => 4973
    [filename] => C:\xampp\htdocs\tr\wp-snapshots\tmp\20190402_breathtaking_85b3f91c781551846220_20190402113536_archive.zip
    [comment] => 
)
 
FILE ADDED TO ZIP: 4972 
COMPRESSION RESULT: '1' 
COMPRESSED SIZE: 117.16MB 
ARCHIVE RUNTIME: 61.84 sec. 
MEMORY STACK: 4MB 
building installer 
add_extra_files1 
add_extra_files2 
add_extra_files3 
add_extra_files4 
Doing archive file check 
add_extra_files5 
add_extra_files6 
add_extra_files8 
Successfully opened zip C:/xampp/htdocs/tr/wp-snapshots/tmp/20190402_breathtaking_85b3f91c781551846220_20190402113536_archive.zip 
Adding enhanced installer files to archive using ZipArchive 
Installer files added to archive 
Added to archive 
After ziparchive close when adding installer 

******************************************************************************** 
INTEGRITY CHECKS: 
******************************************************************************** 
SQL FILE: 539.17KB 
INSTALLER FILE: 44.54KB 
ARCHIVE FILE: 118.02MB  
EXPECTED FILE/DIRECTORY COUNT: 4,973 
ACTUAL FILE/DIRECTORY COUNT: 4,972 
ARCHIVE CONSISTENCY TEST: Pass 

********************************************************************************
RECORD ID:[1]
TOTAL PROCESS RUNTIME: 64.71 sec.
PEAK PHP MEMORY USED: 6MB
DONE PROCESSING => 20190402_breathtaking 02.04.2019 11:37
 
