<svg 
 xmlns="http://www.w3.org/2000/svg"
 xmlns:xlink="http://www.w3.org/1999/xlink"
 width="96px" height="88px">
<path fill-rule="evenodd"  fill="rgb(0, 0, 0)"
 d="M87.536,8.434 C82.126,3.012 74.819,-0.002 67.162,-0.002 C60.089,-0.026 53.251,2.568 47.982,7.289 C36.109,-3.274 17.889,-2.222 7.304,9.650 C1.403,16.264 -1.126,25.191 0.466,33.908 C0.653,34.913 1.637,35.591 2.644,35.404 C3.651,35.217 4.330,34.236 4.143,33.231 C1.660,19.629 10.677,6.612 24.306,4.111 C32.409,2.638 40.722,5.233 46.553,11.051 L46.671,11.169 C47.397,11.893 48.591,11.893 49.317,11.169 L49.434,11.051 C59.223,1.283 75.101,1.283 84.890,11.051 C94.678,20.821 94.678,36.666 84.890,46.435 L84.421,46.902 L73.602,46.902 C73.063,46.902 72.524,47.160 72.173,47.580 L62.923,58.658 L48.872,25.051 C48.661,24.584 48.263,24.210 47.771,24.022 C46.811,23.672 45.734,24.163 45.383,25.145 L37.467,46.926 L15.196,46.926 C14.166,46.926 13.323,47.767 13.323,48.795 C13.323,49.824 14.166,50.665 15.196,50.665 L38.755,50.665 C39.528,50.665 40.254,50.174 40.511,49.427 L47.233,30.940 L60.604,62.959 C60.909,63.660 61.588,64.104 62.338,64.104 C62.923,64.104 63.438,63.846 63.789,63.426 L74.468,50.642 L80.698,50.642 L47.935,83.525 L21.285,59.102 C20.512,58.401 19.341,58.448 18.639,59.219 C17.936,59.990 17.983,61.159 18.756,61.860 L46.741,87.498 C47.490,88.176 48.638,88.152 49.340,87.451 L87.559,49.123 C98.823,37.882 98.800,19.676 87.536,8.434 Z"/>
</svg>